Data Cleaning in R – SCCDS Canvas
…
#> # A tibble: 3 × 2
#>   cat2      n
#>   <chr> <int>
#> 1 D       322
#> 2 E       337
#> 3 F       341

Grouping

Summarizing data is great, but sometimes you may want to group data and obtain summary statistics for those groups. This is done by using the group_by() and specify which variable you want to group. Try grouping data1 by cat1:

data1 |> group_by(cat1)

#> # A tibble: 1,000 × 10
#> # Groups:   cat1 [3]
#>    ID1       cat1  cat2    var1  var2    var3   var4   var5  var6  var7
#>    <chr>     <chr> <chr>  <dbl> <dbl>   <dbl>  <dbl>  <dbl> <dbl> <dbl>
#>  1 A2b6115fd A     E      1.15      4  2.88   3.54   -3.18      0     1
#>  2 Ac51c9cf1 A     D     -0.367     3  0.0640 1.07   -3.18      0     0
#>  3 A7534d3a0 A     F     -0.420     6 -1.04   0.226  -3.18      0     0
#>  4 A73fc5642 A     F     -2.00      5 -0.314  0.0213 -3.18      0     0
#>  5 Ae020e4bd C     E      0.697     3  0.526  2.98    6.06      0     0
#>  6 Ac0d3b0fe A     D      0.467     4  2.45   1.85   -3.18      0     0
#>  7 A2edfed41 A     E      1.36      5  0.514  0.529  -3.18      0     1
#>  8 Ad38a4bbe C     F      0.369     0  1.98   2.36    6.06      0     1
#>  9 A5ee0f97f B     E      1.80      5  0.147  2.22   -0.701     0     0
#> 10 Ad791c03d C     E      1.25      3 -1.05   0.0289  6.06      0     1
#> # ℹ 990 more rows
…
#> # A tibble: 3 × 2
#>   cat1  `mean(var1)`
#>   <chr>        <dbl>
#> 1 A          -0.0369
#> 2 B          -0.0345
#> 3 C          -0.0292

Subsets

On occasion, you may need to create a subset of your data. You may only want to work with one part of your data. To create a subset of your data, use the filter() to create the subset. This will select the rows that satisfy a certain condition. Create a subset of data1 where only the positive values of var1 are present. Use the filter() and state var1>0.

data1 |> filter(var1>0)

#> # A tibble: 484 × 10
#>    ID1       cat1  cat2   var1  var2    var3   var4   var5  var6  var7
#>    <chr>     <chr> <chr> <dbl> <dbl>   <dbl>  <dbl>  <dbl> <dbl> <dbl>
#>  1 A2b6115fd A     E     1.15      4  2.88   3.54   -3.18      0     1
#>  2 Ae020e4bd C     E     0.697     3  0.526  2.98    6.06      0     0
#>  3 Ac0d3b0fe A     D     0.467     4  2.45   1.85   -3.18      0     0
#>  4 A2edfed41 A     E     1.36      5  0.514  0.529  -3.18      0     1
#>  5 Ad38a4bbe C     F     0.369     0  1.98   2.36    6.06      0     1
#>  6 A5ee0f97f B     E     1.80      5  0.147  2.22   -0.701     0     0
#>  7 Ad791c03d C     E     1.25      3 -1.05   0.0289  6.06      0     1
#>  8 Af88d3ab5 B     E     2.10      8  3.07   3.29   -0.701     0     1
#>  9 A429b65a6 A     E     1.46      4  0.0638 2.36   -3.18      0     0
#> 10 A3638155a A     F     0.429     5  1.76   1.55   -3.18      0     1
#> # ℹ 474 more rows

If you know which rows you want, you can use the slice() and specify the rows as a vector. Create a subset of data1 and select the rows 100 to 200 and 300 to 400.

data1 |> slice(c(100:200, 300:400))

#> # A tibble: 202 × 10
#>    ID1       cat1  cat2    var1  var2   var3    var4   var5  var6  var7
#>    <chr>     <chr> <chr>  <dbl> <dbl>  <dbl>   <dbl>  <dbl> <dbl> <dbl>
#>  1 A568e9a48 A     E      1.88      6  2.59  4.02    -3.18      0     1
#>  2 Aa77dca83 B     D      1.32      5  0.889 3.12    -0.701     0     1
#>  3 A901d56c2 C     F     -0.406     6  0.496 3.67     6.06      0     0
#>  4 Ad66ce513 A     D      1.04      2  0.331 0.00523 -3.18      0     0
#>  5 A897a230d B     E     -0.616     9  1.61  3.08    -0.701     0     0
#>  6 Afbc693a4 B     F     -0.404     7 -0.604 0.149   -0.701     0     1
#>  7 Ae7269323 C     F     -0.176     4  1.06  2.26     6.06      0     0
#>  8 A182729af A     D      1.11      7 -0.297 1.45    -3.18      0     1
#>  9 A1a06950b C     E     -1.29      5  1.78  3.07     6.06      0     1
#> 10 A569c9d81 A     F      1.28      6  0.683 1.53    -3.18      0     0
#> # ℹ 192 more rows

If you need random sample of your data1, use the slice_sample(n = N) and specify the number you want. It will create a data set of randomly selected rows. Create a random sample of data1 of 100 rows.

data1 |>  slice_sample(n = 100)

#> # A tibble: 100 × 10
#>    ID1       cat1  cat2      var1  var2   var3   var4   var5  var6  var7
#>    <chr>     <chr> <chr>    <dbl> <dbl>  <dbl>  <dbl>  <dbl> <dbl> <dbl>
#>  1 C6e968b78 C     F      0.824       6  0.942  2.97   6.06      0     1
#>  2 D568e9a48 C     D     -0.360       4  0.397  2.95   6.06      0     0
#>  3 A02dec5e1 B     E     -2.07        4  1.34   3.06  -0.701     0     0
#>  4 B6ae5b4c9 B     F      0.00758     8 -1.34  -0.274 -0.701     0     0
#>  5 A57391f84 C     E     -0.114       7  1.62   2.08   6.06      0     0
#>  6 B59e7d00c C     E     -0.466       3  0.887  2.27   6.06      0     0
#>  7 C2a8d1b6b A     E     -0.609      10  1.33   2.61  -3.18      0     0
#>  8 C81c29d00 A     F     -0.652       9  0.875  2.13  -3.18      0     0
#>  9 Ad138cffd C     F     -0.654       3  1.59   2.16   6.06      0     0
#> 10 A177b3f3c C     D     -0.192       0  3.16   2.91   6.06      0     0
#> # ℹ 90 more rows

If you want a random sample that is proportion of your original data size, use the slice_sample(prop = X). Specify the proportion that you want from the data. Create a random sample of data1 that is only 2/7th of the original size.

data1 |> slice_sample(prop = 2/7)

#> # A tibble: 285 × 10
#>    ID1       cat1  cat2    var1  var2   var3  var4   var5  var6  var7
#>    <chr>     <chr> <chr>  <dbl> <dbl>  <dbl> <dbl>  <dbl> <dbl> <dbl>
#>  1 C921061e3 B     E      2.43      5 -1.04  0.478 -0.701     0     0
#>  2 A21b702c9 B     D     -0.387    13  2.25  3.63  -0.701     0     0
#>  3 C87a5811d A     E      1.74      3  1.24  3.16  -3.18      0     1
#>  4 B3e115ac3 B     D     -2.20      5 -0.362 0.255 -0.701     0     0
#>  5 Dcd6ee546 B     F      0.368     3  1.57  4.03  -0.701     0     0
#>  6 Bc3922a23 A     D     -0.800     6  0.178 1.86  -3.18      0     0
#>  7 A8e19476a B     E     -1.25      3  3.54  3.51  -0.701     0     0
#>  8 Cd6103fdb A     D     -1.31      2  0.514 1.81  -3.18      0     0
#>  9 B22573984 A     E     -1.52      4  0.556 0.890 -3.18      0     0
#> 10 A9ce4930a B     D     -0.145     2  1.50  1.26  -0.701     0     1
#> # ℹ 275 more rows

Creating Variables

Some times you may need to transform variables to a new variable. This can be done by using the mutate() where you specify the name of the new variable and set equal to the transformation of other variables. Using the data2 data set, create a new variable called logvar1 and set that to the log of va1.

data2 |> mutate(logvar1 = log(va1))

#> # A tibble: 1,000 × 6
#>    ID1       ID_1     ID_2      va1    va2 logvar1
#>    <chr>     <chr>    <chr>   <dbl>  <dbl>   <dbl>
#>  1 A2b6115fd 2b6115fd A     0.458   81.4    -0.782
#>  2 Ac51c9cf1 c51c9cf1 A     0.236   -1.15   -1.44 
#>  3 A7534d3a0 7534d3a0 A     0.254    1.16   -1.37 
#>  4 A73fc5642 73fc5642 A     0.0411  -1.21   -3.19 
#>  5 Ae020e4bd e020e4bd A     0.266   -2.31   -1.32 
#>  6 Ac0d3b0fe c0d3b0fe A     0.00992 -0.882  -4.61 
#>  7 A2edfed41 2edfed41 A     0.293   -0.375  -1.23 
#>  8 Ad38a4bbe d38a4bbe A     0.261   -1.09   -1.34 
#>  9 A5ee0f97f 5ee0f97f A     0.186   -6.14   -1.68 
#> 10 Ad791c03d d791c03d A     0.0368  -0.258  -3.30 
#> # ℹ 990 more rows

The mutate() allows you to create multiple new variables at once. Id addition to logvar1, create a new variable called sqrtvar2 and set that equal to the square root of va2.

data2 |> mutate(logvar1 = log(va1), 
                sqrtvar2 = sqrt(va2))

#> # A tibble: 1,000 × 7
#>    ID1       ID_1     ID_2      va1    va2 logvar1 sqrtvar2
#>    <chr>     <chr>    <chr>   <dbl>  <dbl>   <dbl>    <dbl>
#>  1 A2b6115fd 2b6115fd A     0.458   81.4    -0.782     9.02
#>  2 Ac51c9cf1 c51c9cf1 A     0.236   -1.15   -1.44    NaN   
#>  3 A7534d3a0 7534d3a0 A     0.254    1.16   -1.37      1.08
#>  4 A73fc5642 73fc5642 A     0.0411  -1.21   -3.19    NaN   
#>  5 Ae020e4bd e020e4bd A     0.266   -2.31   -1.32    NaN   
#>  6 Ac0d3b0fe c0d3b0fe A     0.00992 -0.882  -4.61    NaN   
#>  7 A2edfed41 2edfed41 A     0.293   -0.375  -1.23    NaN   
#>  8 Ad38a4bbe d38a4bbe A     0.261   -1.09   -1.34    NaN   
#>  9 A5ee0f97f 5ee0f97f A     0.186   -6.14   -1.68    NaN   
#> 10 Ad791c03d d791c03d A     0.0368  -0.258  -3.30    NaN   
#> # ℹ 990 more rows

If you want to create categorical variables, use the mutate() and the if_else(). The if_else() requires three arguments: condition argument, true argument, and false argument. The first argument requires a condition that will return a logical value. If true, then R will assign what is stated in the true argument, otherwise R will assign what is in the false argument. To begin, find the median of va1 from data2 and assign it to medval.

medval <- data2$va1 |> median() 

No create a new variable called diva1 where if va1 is greater than the median of va1, assign it “A”, otherwise assign it “B”.

data2 |> mutate(diva1=if_else(va1>medval,"A","B"))

#> # A tibble: 1,000 × 6
#>    ID1       ID_1     ID_2      va1    va2 diva1
#>    <chr>     <chr>    <chr>   <dbl>  <dbl> <chr>
#>  1 A2b6115fd 2b6115fd A     0.458   81.4   A    
#>  2 Ac51c9cf1 c51c9cf1 A     0.236   -1.15  B    
#>  3 A7534d3a0 7534d3a0 A     0.254    1.16  B    
#>  4 A73fc5642 73fc5642 A     0.0411  -1.21  B    
#>  5 Ae020e4bd e020e4bd A     0.266   -2.31  B    
#>  6 Ac0d3b0fe c0d3b0fe A     0.00992 -0.882 B    
#>  7 A2edfed41 2edfed41 A     0.293   -0.375 A    
#>  8 Ad38a4bbe d38a4bbe A     0.261   -1.09  B    
#>  9 A5ee0f97f 5ee0f97f A     0.186   -6.14  B    
#> 10 Ad791c03d d791c03d A     0.0368  -0.258 B    
#> # ℹ 990 more rows

Merging Datasets

One of the last thing is to go over how to merge data sets together. To merge the data sets, we use the full_join(). The full_join() needs two data sets (separated by commas) and the by argument which provides the variables needed (must be the same name for each data set) to merge the data sets. Merge data1 and data2 with the variable ID1.

full_join(data1, data2, by = "ID1")

#> # A tibble: 1,000 × 14
#>    ID1    cat1  cat2    var1  var2    var3   var4   var5  var6  var7 ID_1  ID_2 
#>    <chr>  <chr> <chr>  <dbl> <dbl>   <dbl>  <dbl>  <dbl> <dbl> <dbl> <chr> <chr>
#>  1 A2b61… A     E      1.15      4  2.88   3.54   -3.18      0     1 2b61… A    
#>  2 Ac51c… A     D     -0.367     3  0.0640 1.07   -3.18      0     0 c51c… A    
#>  3 A7534… A     F     -0.420     6 -1.04   0.226  -3.18      0     0 7534… A    
#>  4 A73fc… A     F     -2.00      5 -0.314  0.0213 -3.18      0     0 73fc… A    
#>  5 Ae020… C     E      0.697     3  0.526  2.98    6.06      0     0 e020… A    
#>  6 Ac0d3… A     D      0.467     4  2.45   1.85   -3.18      0     0 c0d3… A    
#>  7 A2edf… A     E      1.36      5  0.514  0.529  -3.18      0     1 2edf… A    
#>  8 Ad38a… C     F      0.369     0  1.98   2.36    6.06      0     1 d38a… A    
#>  9 A5ee0… B     E      1.80      5  0.147  2.22   -0.701     0     0 5ee0… A    
#> 10 Ad791… C     E      1.25      3 -1.05   0.0289  6.06      0     1 d791… A    
#> # ℹ 990 more rows
#> # ℹ 2 more variables: va1 <dbl>, va2 <dbl>

The full_join() allows you to merge data sets using two variables instead of one. All you need to do is specify by argument with a vector specifying the arguments. Merge data2 and data3 by ID_1 and ID_2.

full_join(data2, data3, by = c("ID_1","ID_2"))

#> # A tibble: 1,000 × 8
#>    ID1.x     ID_1     ID_2      va1    va2 ID1.y         v1     v2
#>    <chr>     <chr>    <chr>   <dbl>  <dbl> <chr>      <dbl>  <dbl>
#>  1 A2b6115fd 2b6115fd A     0.458   81.4   A2b6115fd 0.361  0.278 
#>  2 Ac51c9cf1 c51c9cf1 A     0.236   -1.15  Ac51c9cf1 0.273  2.64  
#>  3 A7534d3a0 7534d3a0 A     0.254    1.16  A7534d3a0 1.17   0.119 
#>  4 A73fc5642 73fc5642 A     0.0411  -1.21  A73fc5642 0.879  0.705 
#>  5 Ae020e4bd e020e4bd A     0.266   -2.31  Ae020e4bd 0.0268 0.297 
#>  6 Ac0d3b0fe c0d3b0fe A     0.00992 -0.882 Ac0d3b0fe 1.18   3.16  
#>  7 A2edfed41 2edfed41 A     0.293   -0.375 A2edfed41 0.356  0.174 
#>  8 Ad38a4bbe d38a4bbe A     0.261   -1.09  Ad38a4bbe 0.430  0.130 
#>  9 A5ee0f97f 5ee0f97f A     0.186   -6.14  A5ee0f97f 0.643  0.0231
#> 10 Ad791c03d d791c03d A     0.0368  -0.258 Ad791c03d 0.183  0.311 
#> # ℹ 990 more rows

Reshaping Data

This section focuses on reshaping the data to prepare it for analysis. For example, to conduct longitudinal data analysis, you will need to have long data. Reshaping data may be with converting data from wide to long, converting back from long to wide, splitting variables, splitting rows and merging variable. The functions used in this lesson are from the tidy package

Wide to Long Data

Converting data from wide to long is necessary when the data looks like data4, view data4:

data4

#> # A tibble: 1,000 × 5
#>    ID1           X1     X2    X3    X4
#>    <chr>      <dbl>  <dbl> <dbl> <dbl>
#>  1 Ad9131ee9  0.800  4.68   1.46  5.35
#>  2 A9c5988ea  1.17   1.50   4.83  3.75
#>  3 A28a5479d  1.85   2.64   2.39  4.34
#>  4 Aaf5537cc  1.55   2.28   3.35  3.76
#>  5 A370958bd -1.36   2.48   2.06  4.70
#>  6 Aea997e13  2.37   3.27   3.11  3.31
#>  7 A3563646f  2.10  -0.902  2.49  2.75
#>  8 A9b3cfdba -0.513  0.271  2.97  2.97
#>  9 A32b6737a  1.28   2.02   3.48  4.87
#> 10 A30e96748  1.30   1.72   2.11  2.04
#> # ℹ 990 more rows

Let’s say data4 represents biomarker data. Variable ID1 represents a unique identifier for the participant. Then X1, X2, X3, and X4 represents a value collected for a participant at different time point. This is know as repeated measurements. This data is considered wide because the repeated measurements are on the same row. To make it long, the repeated measurements must be on the same column.

To convert data from long to wide, we will use the pivot_longer() with the first argument taking variables of the repeated measurements, c(X1:X4) or X1:X4, second you will need to specify the names_to argument which specifies the variable name to store the long variables, lastly you will need to specify the values_to argument that specifies variable to store the values in the long data set. Convert the data4 to long and name the variable names column "measurement", and values column "value".

data4 |> pivot_longer(X1:X4, 
                      names_to = "measurement", 
                      values_to = "value")

#> # A tibble: 4,000 × 3
#>    ID1       measurement value
#>    <chr>     <chr>       <dbl>
#>  1 Ad9131ee9 X1          0.800
#>  2 Ad9131ee9 X2          4.68 
#>  3 Ad9131ee9 X3          1.46 
#>  4 Ad9131ee9 X4          5.35 
#>  5 A9c5988ea X1          1.17 
#>  6 A9c5988ea X2          1.50 
#>  7 A9c5988ea X3          4.83 
#>  8 A9c5988ea X4          3.75 
#>  9 A28a5479d X1          1.85 
#> 10 A28a5479d X2          2.64 
#> # ℹ 3,990 more rows

Long to Wide

If you need to convert data from long to wide, use the pivot_wider(). You will need to specify the names_from argument which specifies the variable names for the wide data set, and you will need to specify the values_from argument that specifies variable that contains the values in the long data set. Convert data5 from long to wide data. Note, you must specify the arguments for this function.

data5 |> pivot_wider(names_from = measurement, 
                     values_from = value)

#> # A tibble: 1,000 × 5
#>    ID1           X1     X2    X3    X4
#>    <chr>      <dbl>  <dbl> <dbl> <dbl>
#>  1 Ad9131ee9  0.800  4.68   1.46  5.35
#>  2 A9c5988ea  1.17   1.50   4.83  3.75
#>  3 A28a5479d  1.85   2.64   2.39  4.34
#>  4 Aaf5537cc  1.55   2.28   3.35  3.76
#>  5 A370958bd -1.36   2.48   2.06  4.70
#>  6 Aea997e13  2.37   3.27   3.11  3.31
#>  7 A3563646f  2.10  -0.902  2.49  2.75
#>  8 A9b3cfdba -0.513  0.271  2.97  2.97
#>  9 A32b6737a  1.28   2.02   3.48  4.87
#> 10 A30e96748  1.30   1.72   2.11  2.04
#> # ℹ 990 more rows

Spliting Variables

Before we begin, look at data6:

data6

#> # A tibble: 1,000 × 4
#>    ID1       merge         X3    X4
#>    <chr>     <chr>      <dbl> <dbl>
#>  1 Ad9131ee9 -1.23/2.64  2.12  3.56
#>  2 A9c5988ea 1.74/3.02   4.09  4.88
#>  3 A28a5479d 0.87/3.56   3.47  4.47
#>  4 Aaf5537cc 1.05/2.01   3.61  5.03
#>  5 A370958bd -1.47/1.26  3.98  6.59
#>  6 Aea997e13 1.66/3.51   1.65  2.72
#>  7 A3563646f 1.81/1.7    4.29  3.13
#>  8 A9b3cfdba 1.8/2.26    1.94  5.23
#>  9 A32b6737a 2.38/1.68   3.06  3.3 
#> 10 A30e96748 1/2.17      2.59  3.03
#> # ℹ 990 more rows

Notice how the merge variable has two values separated by “/”. If we need to split the variable into two variables, we need to specify the separate(). All you need to specify is the variable you need to split, the name of the 2 new variables, in a character vector, and how to split the variable "/". Split the variable merge in data6 to two new variables called X1 and X2.

data6 |> separate(merge, c("X1", "X2"), "/")

#> # A tibble: 1,000 × 5
#>    ID1       X1    X2       X3    X4
#>    <chr>     <chr> <chr> <dbl> <dbl>
#>  1 Ad9131ee9 -1.23 2.64   2.12  3.56
#>  2 A9c5988ea 1.74  3.02   4.09  4.88
#>  3 A28a5479d 0.87  3.56   3.47  4.47
#>  4 Aaf5537cc 1.05  2.01   3.61  5.03
#>  5 A370958bd -1.47 1.26   3.98  6.59
#>  6 Aea997e13 1.66  3.51   1.65  2.72
#>  7 A3563646f 1.81  1.7    4.29  3.13
#>  8 A9b3cfdba 1.8   2.26   1.94  5.23
#>  9 A32b6737a 2.38  1.68   3.06  3.3 
#> 10 A30e96748 1     2.17   2.59  3.03
#> # ℹ 990 more rows

Splitting Rows

The variable merge in data6 was split into different variables before, now instead of variables, let’s split it into different rows instead. To do this, use the separate_rows(). All you need to specify the variable name and the sep argument (must state the argument). Split the merge variable from data6 into different rows.

data6 |> separate_rows(merge, sep = "/")

#> # A tibble: 2,000 × 4
#>    ID1       merge    X3    X4
#>    <chr>     <chr> <dbl> <dbl>
#>  1 Ad9131ee9 -1.23  2.12  3.56
#>  2 Ad9131ee9 2.64   2.12  3.56
#>  3 A9c5988ea 1.74   4.09  4.88
#>  4 A9c5988ea 3.02   4.09  4.88
#>  5 A28a5479d 0.87   3.47  4.47
#>  6 A28a5479d 3.56   3.47  4.47
#>  7 Aaf5537cc 1.05   3.61  5.03
#>  8 Aaf5537cc 2.01   3.61  5.03
#>  9 A370958bd -1.47  3.98  6.59
#> 10 A370958bd 1.26   3.98  6.59
#> # ℹ 1,990 more rows

Merging Rows

If you need to merge variables together, similar to the merge variable, use the unite(). All you need to do is specify the variables to merge, the col argument which specifies the name of the new variable (as a character), and the sep argument which indicates the symbol for separate value, as a character. Note, you need to specify the bot the col argument and sep argument. Merge variable X3 and X4 in data6 to a new variable called merge2 and have the separator be a hyphen.

data6 |> unite(X3, X4, col = "merge2", sep="-")

#> # A tibble: 1,000 × 3
#>    ID1       merge      merge2   
#>    <chr>     <chr>      <chr>    
#>  1 Ad9131ee9 -1.23/2.64 2.12-3.56
#>  2 A9c5988ea 1.74/3.02  4.09-4.88
#>  3 A28a5479d 0.87/3.56  3.47-4.47
#>  4 Aaf5537cc 1.05/2.01  3.61-5.03
#>  5 A370958bd -1.47/1.26 3.98-6.59
#>  6 Aea997e13 1.66/3.51  1.65-2.72
#>  7 A3563646f 1.81/1.7   4.29-3.13
#>  8 A9b3cfdba 1.8/2.26   1.94-5.23
#>  9 A32b6737a 2.38/1.68  3.06-3.3 
#> 10 A30e96748 1/2.17     2.59-3.03
#> # ℹ 990 more rows
…
